sv_common_ips/01_literals_datatypes/waveform.vcd
$version Generated by VerilatedVcd $end
$timescale 1ps $end
 $scope module TOP $end
  $var wire 1 ' clk $end
  $var wire 1 ( rst_n $end
  $var wire 8 ) in_u8 [7:0] $end
  $var wire 8 * in_s8 [7:0] $end
  $var wire 8 + out_sum_u [7:0] $end
  $var wire 9 , out_sum_s [8:0] $end
  $var wire 4 - out_enum_bits [3:0] $end
  $var wire 16 . out_struct_pack [15:0] $end
  $scope module top $end
   $var wire 1 ' clk $end
   $var wire 1 ( rst_n $end
   $var wire 8 ) in_u8 [7:0] $end
   $var wire 8 * in_s8 [7:0] $end
   $var wire 8 + out_sum_u [7:0] $end
   $var wire 9 , out_sum_s [8:0] $end
   $var wire 4 - out_enum_bits [3:0] $end
   $var wire 16 . out_struct_pack [15:0] $end
   $var wire 8 / a [7:0] $end
   $var wire 8 0 b [7:0] $end
   $var wire 8 1 c [7:0] $end
   $var wire 32 2 unsized [31:0] $end
   $var wire 16 3 fill0 [15:0] $end
   $var wire 16 4 fill1 [15:0] $end
   $var wire 16 3 fillx [15:0] $end
   $var wire 16 3 fillz [15:0] $end
   $var wire 1 # two_state_flag $end
   $var wire 1 $ four_state_flag $end
   $var wire 4 % state [3:0] $end
   $var wire 16 & pack_me [15:0] $end
  $upscope $end
 $upscope $end
$enddefinitions $end


#0
0#
0$
b0000 %
b0000000000000000 &
0'
0(
b00000000 )
b00000000 *
b00000000 +
b000000000 ,
b0000 -
b0000000000000000 .
b10100101 /
b00001010 0
b00111100 1
b11111111111111111111111100000000 2
b0000000000000000 3
b1111111111111111 4
#1
1'
#2
0'
#3
1'
#4
0'
#5
1'
#6
0'
#7
1'
#8
0'
#9
1'
#10
0'
1(
#11
b0000000000001010 &
1'
b10100101 +
b010100101 ,
b0000000000001010 .
#12
0'
b00000111 )
b11111111 *
#13
1#
1$
b0001 %
b0000011100001010 &
1'
b10101100 +
b010100100 ,
b0001 -
b0000011100001010 .
#14
0'
b00001110 )
b00000010 *
#15
0#
0$
b0000111000001010 &
1'
b10110011 +
b010100111 ,
b0000111000001010 .
#16
0'
b00010101 )
b11111101 *
#17
1#
1$
b0001010100001010 &
1'
b10111010 +
b010100010 ,
b0001010100001010 .
#18
0'
b00011100 )
b00000100 *
#19
0#
0$
b0001110000001010 &
1'
b11000001 +
b010101001 ,
b0001110000001010 .
#20
0'
b00100011 )
b11111011 *
#21
1#
1$
b0010001100001010 &
1'
b11001000 +
b010100000 ,
b0010001100001010 .
#22
0'
b00101010 )
b00000110 *
#23
0#
0$
b0010101000001010 &
1'
b11001111 +
b010101011 ,
b0010101000001010 .
#24
0'
b00110001 )
b11111001 *
#25
1#
1$
b0011000100001010 &
1'
b11010110 +
b010011110 ,
b0011000100001010 .
#26
0'
b00111000 )
b00001000 *
#27
0#
0$
b0011100000001010 &
1'
b11011101 +
b010101101 ,
b0011100000001010 .
#28
0'
b00111111 )
b11110111 *
#29
1#
1$
b0011111100001010 &
1'
b11100100 +
b010011100 ,
b0011111100001010 .
#30
0'
b01000110 )
b00001010 *
#31
0#
0$
b0100011000001010 &
1'
b11101011 +
b010101111 ,
b0100011000001010 .
#32
0'
b01001101 )
b11110101 *
#33
1#
1$
b0100110100001010 &
1'
b11110010 +
b010011010 ,
b0100110100001010 .
#34
0'
b01010100 )
b00001100 *
#35
0#
0$
b0101010000001010 &
1'
b11111001 +
b010110001 ,
b0101010000001010 .
#36
0'
b01011011 )
b11110011 *
#37
1#
1$
b0101101100001010 &
1'
b00000000 +
b010011000 ,
b0101101100001010 .
#38
0'
b01100010 )
b00001110 *
#39
0#
0$
b0110001000001010 &
1'
b00000111 +
b010110011 ,
b0110001000001010 .
#40
0'
b01101001 )
b11110001 *
#41
1#
1$
b0110100100001010 &
1'
b00001110 +
b010010110 ,
b0110100100001010 .
#42
0'
b01110000 )
b00010000 *
#43
0#
0$
b0111000000001010 &
1'
b00010101 +
b010110101 ,
b0111000000001010 .
#44
0'
b01110111 )
b11101111 *
#45
1#
1$
b0111011100001010 &
1'
b00011100 +
b010010100 ,
b0111011100001010 .
#46
0'
b01111110 )
b00010010 *
#47
0#
0$
b0111111000001010 &
1'
b00100011 +
b010110111 ,
b0111111000001010 .
#48
0'
b10000101 )
b11101101 *
#49
1#
1$
b1000010100001010 &
1'
b00101010 +
b010010010 ,
b1000010100001010 .
#50
0'
b10001100 )
b00010100 *
#51
0#
0$
b1000110000001010 &
1'
b00110001 +
b010111001 ,
b1000110000001010 .
#52
0'
b10010011 )
b11101011 *
#53
1#
1$
b1001001100001010 &
1'
b00111000 +
b010010000 ,
b1001001100001010 .
#54
0'
b10011010 )
b00010110 *
#55
0#
0$
b1001101000001010 &
1'
b00111111 +
b010111011 ,
b1001101000001010 .
#56
0'
b10100001 )
b11101001 *
#57
1#
1$
b1010000100001010 &
1'
b01000110 +
b010001110 ,
b1010000100001010 .
#58
0'
b10101000 )
b00011000 *
#59
0#
0$
b1010100000001010 &
1'
b01001101 +
b010111101 ,
b1010100000001010 .
#60
0'
b10101111 )
b11100111 *
#61
1#
1$
b1010111100001010 &
1'
b01010100 +
b010001100 ,
b1010111100001010 .
#62
0'
b10110110 )
b00011010 *
#63
0#
0$
b1011011000001010 &
1'
b01011011 +
b010111111 ,
b1011011000001010 .
#64
0'
b10111101 )
b11100101 *
#65
1#
1$
b1011110100001010 &
1'
b01100010 +
b010001010 ,
b1011110100001010 .
#66
0'
b11000100 )
b00011100 *
#67
0#
0$
b1100010000001010 &
1'
b01101001 +
b011000001 ,
b1100010000001010 .
#68
0'
b11001011 )
b11100011 *
#69
1#
1$
b1100101100001010 &
1'
b01110000 +
b010001000 ,
b1100101100001010 .
#70
0'
b11010010 )
b00011110 *
#71
0#
0$
b1101001000001010 &
1'
b01110111 +
b011000011 ,
b1101001000001010 .
#72
0'
b11011001 )
b11100001 *
#73
1#
1$
b1101100100001010 &
1'
b01111110 +
b010000110 ,
b1101100100001010 .
#74
0'
b11100000 )
b00100000 *
#75
0#
0$
b1110000000001010 &
1'
b10000101 +
b011000101 ,
b1110000000001010 .
#76
0'
b11100111 )
b11011111 *
#77
1#
1$
b1110011100001010 &
1'
b10001100 +
b010000100 ,
b1110011100001010 .
#78
0'
b11101110 )
b00100010 *
#79
0#
0$
b1110111000001010 &
1'
b10010011 +
b011000111 ,
b1110111000001010 .
#80
0'
b11110101 )
b11011101 *
#81
1#
1$
b1111010100001010 &
1'
b10011010 +
b010000010 ,
b1111010100001010 .
#82
0'
b11111100 )
b00100100 *
#83
0#
0$
b1111110000001010 &
1'
b10100001 +
b011001001 ,
b1111110000001010 .
#84
0'
b00000011 )
b11011011 *
#85
1#
1$
b0000001100001010 &
1'
b10101000 +
b010000000 ,
b0000001100001010 .
#86
0'
b00001010 )
b00100110 *
#87
0#
0$
b0000101000001010 &
1'
b10101111 +
b011001011 ,
b0000101000001010 .
#88
0'
b00010001 )
b11011001 *
#89
1#
1$
b0001000100001010 &
1'
b10110110 +
b001111110 ,
b0001000100001010 .
